{
  "pagination": {
    "total": 12,
    "page": 1,
    "pages": 2,
    "pageSize": 10
  },
  "activities": [
    {
      "id": "ACT001",
      "carModel": {
        "brand_name": "Tesla",
        "model_name": "Long Range",
        "color_name": "White"
      },
      "plateNumber": "กก1234 กทม"
    },
    {
      "id": "ACT002",
      "carModel": {
        "brand_name": "Tesla",
        "model_name": "Long Range",
        "color_name": "Black"
      },
      "plateNumber": "ขข1234 กทม"
    },
    {
      "id": "ACT003",
      "carModel": {
        "brand_name": "Tesla",
        "model_name": "Long Range",
        "color_name": "Gray"
      },
      "plateNumber": "คค1234 กทม"
    },
    {
      "id": "ACT004",
      "carModel": {
        "brand_name": "Tesla",
        "model_name": "Long Range",
        "color_name": "Blue"
      },
      "plateNumber": "งง1234 กทม"
    },
    {
      "id": "ACT005",
      "carModel": {
        "brand_name": "Tesla",
        "model_name": "Long Range",
        "color_name": "Red"
      },
      "plateNumber": "จจ1234 กทม"
    },
    {
      "id": "ACT006",
      "carModel": {
        "brand_name": "Lexus",
        "model_name": "UX 300e",
        "color_name": "White"
      },
      "plateNumber": "ฉฉ1234 กทม"
    },
    {
      "id": "ACT008",
      "carModel": {
        "brand_name": "BMW",
        "model_name": "iX3",
        "color_name": "White"
      },
      "plateNumber": "ชช1234 กทม"
    },
    {
      "id": "ACT009",
      "carModel": {
        "brand_name": "Volvo",
        "model_name": "XC40 Recharge Pure Electric",
        "color_name": "White"
      },
      "plateNumber": "ญญ1234 กทม"
    },
    {
      "id": "ACT010",
      "carModel": {
        "brand_name": "Prosche",
        "model_name": "Taycan Base Model",
        "color_name": "Red"
      },
      "plateNumber": "ฏฏ1234 กทม"
    },
    {
      "id": "ACT011",
      "carModel": {
        "brand_name": "Audi",
        "model_name": "e-tron Sportback 55 quattro S Line",
        "color_name": "White"
      },
      "plateNumber": "ดด1234 กทม"
    },
    {
      "id": "ACT012",
      "carModel": {
        "brand_name": "Hyundai",
        "model_name": "IONIQ 6",
        "color_name": "White"
      },
      "plateNumber": "ศศ1234 กทม"
    }
  ]
}
